^K:\DEVELOPMENT\VISUAL STUDIOS PROJECTS\COMPUTER_GRAPHICS_PROJECT_4\COMPUTER_GRAPHICS_PROJECT_4\DEBUG\AMBIENTLIGHT.OBJ|K:\DEVELOPMENT\VISUAL STUDIOS PROJECTS\COMPUTER_GRAPHICS_PROJECT_4\COMPUTER_GRAPHICS_PROJECT_4\DEBUG\CAMERA.OBJ|K:\DEVELOPMENT\VISUAL STUDIOS PROJECTS\COMPUTER_GRAPHICS_PROJECT_4\COMPUTER_GRAPHICS_PROJECT_4\DEBUG\CARD.OBJ|K:\DEVELOPMENT\VISUAL STUDIOS PROJECTS\COMPUTER_GRAPHICS_PROJECT_4\COMPUTER_GRAPHICS_PROJECT_4\DEBUG\DECK.OBJ|K:\DEVELOPMENT\VISUAL STUDIOS PROJECTS\COMPUTER_GRAPHICS_PROJECT_4\COMPUTER_GRAPHICS_PROJECT_4\DEBUG\DIRECTIONALLIGHT.OBJ|K:\DEVELOPMENT\VISUAL STUDIOS PROJECTS\COMPUTER_GRAPHICS_PROJECT_4\COMPUTER_GRAPHICS_PROJECT_4\DEBUG\GAME.OBJ|K:\DEVELOPMENT\VISUAL STUDIOS PROJECTS\COMPUTER_GRAPHICS_PROJECT_4\COMPUTER_GRAPHICS_PROJECT_4\DEBUG\LIGHT.OBJ|K:\DEVELOPMENT\VISUAL STUDIOS PROJECTS\COMPUTER_GRAPHICS_PROJECT_4\COMPUTER_GRAPHICS_PROJECT_4\DEBUG\LODEPNG.OBJ|K:\DEVELOPMENT\VISUAL STUDIOS PROJECTS\COMPUTER_GRAPHICS_PROJECT_4\COMPUTER_GRAPHICS_PROJECT_4\DEBUG\MAIN.OBJ|K:\DEVELOPMENT\VISUAL STUDIOS PROJECTS\COMPUTER_GRAPHICS_PROJECT_4\COMPUTER_GRAPHICS_PROJECT_4\DEBUG\PLAYER.OBJ|K:\DEVELOPMENT\VISUAL STUDIOS PROJECTS\COMPUTER_GRAPHICS_PROJECT_4\COMPUTER_GRAPHICS_PROJECT_4\DEBUG\POINTLIGHT.OBJ|K:\DEVELOPMENT\VISUAL STUDIOS PROJECTS\COMPUTER_GRAPHICS_PROJECT_4\COMPUTER_GRAPHICS_PROJECT_4\DEBUG\PRISM.OBJ|K:\DEVELOPMENT\VISUAL STUDIOS PROJECTS\COMPUTER_GRAPHICS_PROJECT_4\COMPUTER_GRAPHICS_PROJECT_4\DEBUG\QUAD.OBJ|K:\DEVELOPMENT\VISUAL STUDIOS PROJECTS\COMPUTER_GRAPHICS_PROJECT_4\COMPUTER_GRAPHICS_PROJECT_4\DEBUG\ROOM.OBJ|K:\DEVELOPMENT\VISUAL STUDIOS PROJECTS\COMPUTER_GRAPHICS_PROJECT_4\COMPUTER_GRAPHICS_PROJECT_4\DEBUG\SCOREKEEPER.OBJ|K:\DEVELOPMENT\VISUAL STUDIOS PROJECTS\COMPUTER_GRAPHICS_PROJECT_4\COMPUTER_GRAPHICS_PROJECT_4\DEBUG\SHADER.OBJ|K:\DEVELOPMENT\VISUAL STUDIOS PROJECTS\COMPUTER_GRAPHICS_PROJECT_4\COMPUTER_GRAPHICS_PROJECT_4\DEBUG\SKYBOX.OBJ|K:\DEVELOPMENT\VISUAL STUDIOS PROJECTS\COMPUTER_GRAPHICS_PROJECT_4\COMPUTER_GRAPHICS_PROJECT_4\DEBUG\SQUARE.OBJ|K:\DEVELOPMENT\VISUAL STUDIOS PROJECTS\COMPUTER_GRAPHICS_PROJECT_4\COMPUTER_GRAPHICS_PROJECT_4\DEBUG\TABLE.OBJ|K:\DEVELOPMENT\VISUAL STUDIOS PROJECTS\COMPUTER_GRAPHICS_PROJECT_4\COMPUTER_GRAPHICS_PROJECT_4\DEBUG\TEXTURE.OBJ|K:\DEVELOPMENT\VISUAL STUDIOS PROJECTS\COMPUTER_GRAPHICS_PROJECT_4\COMPUTER_GRAPHICS_PROJECT_4\DEBUG\TRIANGLE.OBJ|K:\DEVELOPMENT\VISUAL STUDIOS PROJECTS\COMPUTER_GRAPHICS_PROJECT_4\COMPUTER_GRAPHICS_PROJECT_4\DEBUG\VERTEX.OBJ
K:\DEVELOPMENT\VISUAL STUDIOS PROJECTS\COMPUTER_GRAPHICS_PROJECT_4\DEBUG\COMPUTER_GRAPHICS_PROJECT_4.EXE
K:\DEVELOPMENT\VISUAL STUDIOS PROJECTS\COMPUTER_GRAPHICS_PROJECT_4\DEBUG\COMPUTER_GRAPHICS_PROJECT_4.ILK
K:\DEVELOPMENT\VISUAL STUDIOS PROJECTS\COMPUTER_GRAPHICS_PROJECT_4\DEBUG\COMPUTER_GRAPHICS_PROJECT_4.PDB
