^K:\DEVELOPMENT\VISUAL STUDIOS PROJECTS\COMPUTER_GRAPHICS_PROJECT_4\COMPUTER_GRAPHICS_PROJECT_4\DEBUG\AMBIENTLIGHT.OBJ|K:\DEVELOPMENT\VISUAL STUDIOS PROJECTS\COMPUTER_GRAPHICS_PROJECT_4\COMPUTER_GRAPHICS_PROJECT_4\DEBUG\CAMERA.OBJ|K:\DEVELOPMENT\VISUAL STUDIOS PROJECTS\COMPUTER_GRAPHICS_PROJECT_4\COMPUTER_GRAPHICS_PROJECT_4\DEBUG\CARD.OBJ|K:\DEVELOPMENT\VISUAL STUDIOS PROJECTS\COMPUTER_GRAPHICS_PROJECT_4\COMPUTER_GRAPHICS_PROJECT_4\DEBUG\DECK.OBJ|K:\DEVELOPMENT\VISUAL STUDIOS PROJECTS\COMPUTER_GRAPHICS_PROJECT_4\COMPUTER_GRAPHICS_PROJECT_4\DEBUG\DIRECTIONALLIGHT.OBJ|K:\DEVELOPMENT\VISUAL STUDIOS PROJECTS\COMPUTER_GRAPHICS_PROJECT_4\COMPUTER_GRAPHICS_PROJECT_4\DEBUG\GAME.OBJ|K:\DEVELOPMENT\VISUAL STUDIOS PROJECTS\COMPUTER_GRAPHICS_PROJECT_4\COMPUTER_GRAPHICS_PROJECT_4\DEBUG\LIGHT.OBJ|K:\DEVELOPMENT\VISUAL STUDIOS PROJECTS\COMPUTER_GRAPHICS_PROJECT_4\COMPUTER_GRAPHICS_PROJECT_4\DEBUG\LODEPNG.OBJ|K:\DEVELOPMENT\VISUAL STUDIOS PROJECTS\COMPUTER_GRAPHICS_PROJECT_4\COMPUTER_GRAPHICS_PROJECT_4\DEBUG\MAIN.OBJ|K:\DEVELOPMENT\VISUAL STUDIOS PROJECTS\COMPUTER_GRAPHICS_PROJECT_4\COMPUTER_GRAPHICS_PROJECT_4\DEBUG\PLAYER.OBJ|K:\DEVELOPMENT\VISUAL STUDIOS PROJECTS\COMPUTER_GRAPHICS_PROJECT_4\COMPUTER_GRAPHICS_PROJECT_4\DEBUG\POINTLIGHT.OBJ|K:\DEVELOPMENT\VISUAL STUDIOS PROJECTS\COMPUTER_GRAPHICS_PROJECT_4\COMPUTER_GRAPHICS_PROJECT_4\DEBUG\PRISM.OBJ|K:\DEVELOPMENT\VISUAL STUDIOS PROJECTS\COMPUTER_GRAPHICS_PROJECT_4\COMPUTER_GRAPHICS_PROJECT_4\DEBUG\QUAD.OBJ|K:\DEVELOPMENT\VISUAL STUDIOS PROJECTS\COMPUTER_GRAPHICS_PROJECT_4\COMPUTER_GRAPHICS_PROJECT_4\DEBUG\ROOM.OBJ|K:\DEVELOPMENT\VISUAL STUDIOS PROJECTS\COMPUTER_GRAPHICS_PROJECT_4\COMPUTER_GRAPHICS_PROJECT_4\DEBUG\SCOREKEEPER.OBJ|K:\DEVELOPMENT\VISUAL STUDIOS PROJECTS\COMPUTER_GRAPHICS_PROJECT_4\COMPUTER_GRAPHICS_PROJECT_4\DEBUG\SHADER.OBJ|K:\DEVELOPMENT\VISUAL STUDIOS PROJECTS\COMPUTER_GRAPHICS_PROJECT_4\COMPUTER_GRAPHICS_PROJECT_4\DEBUG\SKYBOX.OBJ|K:\DEVELOPMENT\VISUAL STUDIOS PROJECTS\COMPUTER_GRAPHICS_PROJECT_4\COMPUTER_GRAPHICS_PROJECT_4\DEBUG\SQUARE.OBJ|K:\DEVELOPMENT\VISUAL STUDIOS PROJECTS\COMPUTER_GRAPHICS_PROJECT_4\COMPUTER_GRAPHICS_PROJECT_4\DEBUG\TABLE.OBJ|K:\DEVELOPMENT\VISUAL STUDIOS PROJECTS\COMPUTER_GRAPHICS_PROJECT_4\COMPUTER_GRAPHICS_PROJECT_4\DEBUG\TEXTURE.OBJ|K:\DEVELOPMENT\VISUAL STUDIOS PROJECTS\COMPUTER_GRAPHICS_PROJECT_4\COMPUTER_GRAPHICS_PROJECT_4\DEBUG\TRIANGLE.OBJ|K:\DEVELOPMENT\VISUAL STUDIOS PROJECTS\COMPUTER_GRAPHICS_PROJECT_4\COMPUTER_GRAPHICS_PROJECT_4\DEBUG\VERTEX.OBJ
C:\WINDOWS\GLOBALIZATION\SORTING\SORTDEFAULT.NLS
K:\LIB\SFML_LIB\SFML-GRAPHICS-D.LIB
K:\LIB\SFML_LIB\SFML-WINDOW-D.LIB
K:\LIB\SFML_LIB\SFML-SYSTEM-D.LIB
K:\LIB\SFML_LIB\SFML-AUDIO-D.LIB
K:\LIB\SFML_LIB\GLEW32S.LIB
C:\PROGRAM FILES (X86)\WINDOWS KITS\10\LIB\10.0.15063.0\UM\X86\OPENGL32.LIB
C:\PROGRAM FILES (X86)\WINDOWS KITS\10\LIB\10.0.15063.0\UM\X86\KERNEL32.LIB
C:\PROGRAM FILES (X86)\WINDOWS KITS\10\LIB\10.0.15063.0\UM\X86\USER32.LIB
C:\PROGRAM FILES (X86)\WINDOWS KITS\10\LIB\10.0.15063.0\UM\X86\GDI32.LIB
C:\PROGRAM FILES (X86)\WINDOWS KITS\10\LIB\10.0.15063.0\UM\X86\WINSPOOL.LIB
C:\PROGRAM FILES (X86)\WINDOWS KITS\10\LIB\10.0.15063.0\UM\X86\COMDLG32.LIB
C:\PROGRAM FILES (X86)\WINDOWS KITS\10\LIB\10.0.15063.0\UM\X86\ADVAPI32.LIB
C:\PROGRAM FILES (X86)\WINDOWS KITS\10\LIB\10.0.15063.0\UM\X86\SHELL32.LIB
C:\PROGRAM FILES (X86)\WINDOWS KITS\10\LIB\10.0.15063.0\UM\X86\OLE32.LIB
C:\PROGRAM FILES (X86)\WINDOWS KITS\10\LIB\10.0.15063.0\UM\X86\OLEAUT32.LIB
C:\PROGRAM FILES (X86)\WINDOWS KITS\10\LIB\10.0.15063.0\UM\X86\UUID.LIB
C:\PROGRAM FILES (X86)\WINDOWS KITS\10\LIB\10.0.15063.0\UM\X86\ODBC32.LIB
C:\PROGRAM FILES (X86)\WINDOWS KITS\10\LIB\10.0.15063.0\UM\X86\ODBCCP32.LIB
K:\DEVELOPMENT\VISUAL STUDIOS PROJECTS\COMPUTER_GRAPHICS_PROJECT_4\COMPUTER_GRAPHICS_PROJECT_4\DEBUG\AMBIENTLIGHT.OBJ
K:\DEVELOPMENT\VISUAL STUDIOS PROJECTS\COMPUTER_GRAPHICS_PROJECT_4\COMPUTER_GRAPHICS_PROJECT_4\DEBUG\CAMERA.OBJ
K:\DEVELOPMENT\VISUAL STUDIOS PROJECTS\COMPUTER_GRAPHICS_PROJECT_4\COMPUTER_GRAPHICS_PROJECT_4\DEBUG\CARD.OBJ
K:\DEVELOPMENT\VISUAL STUDIOS PROJECTS\COMPUTER_GRAPHICS_PROJECT_4\COMPUTER_GRAPHICS_PROJECT_4\DEBUG\DECK.OBJ
K:\DEVELOPMENT\VISUAL STUDIOS PROJECTS\COMPUTER_GRAPHICS_PROJECT_4\COMPUTER_GRAPHICS_PROJECT_4\DEBUG\DIRECTIONALLIGHT.OBJ
K:\DEVELOPMENT\VISUAL STUDIOS PROJECTS\COMPUTER_GRAPHICS_PROJECT_4\COMPUTER_GRAPHICS_PROJECT_4\DEBUG\GAME.OBJ
K:\DEVELOPMENT\VISUAL STUDIOS PROJECTS\COMPUTER_GRAPHICS_PROJECT_4\COMPUTER_GRAPHICS_PROJECT_4\DEBUG\LODEPNG.OBJ
K:\DEVELOPMENT\VISUAL STUDIOS PROJECTS\COMPUTER_GRAPHICS_PROJECT_4\COMPUTER_GRAPHICS_PROJECT_4\DEBUG\LIGHT.OBJ
K:\DEVELOPMENT\VISUAL STUDIOS PROJECTS\COMPUTER_GRAPHICS_PROJECT_4\COMPUTER_GRAPHICS_PROJECT_4\DEBUG\MAIN.OBJ
K:\DEVELOPMENT\VISUAL STUDIOS PROJECTS\COMPUTER_GRAPHICS_PROJECT_4\COMPUTER_GRAPHICS_PROJECT_4\DEBUG\PLAYER.OBJ
K:\DEVELOPMENT\VISUAL STUDIOS PROJECTS\COMPUTER_GRAPHICS_PROJECT_4\COMPUTER_GRAPHICS_PROJECT_4\DEBUG\POINTLIGHT.OBJ
K:\DEVELOPMENT\VISUAL STUDIOS PROJECTS\COMPUTER_GRAPHICS_PROJECT_4\COMPUTER_GRAPHICS_PROJECT_4\DEBUG\PRISM.OBJ
K:\DEVELOPMENT\VISUAL STUDIOS PROJECTS\COMPUTER_GRAPHICS_PROJECT_4\COMPUTER_GRAPHICS_PROJECT_4\DEBUG\QUAD.OBJ
K:\DEVELOPMENT\VISUAL STUDIOS PROJECTS\COMPUTER_GRAPHICS_PROJECT_4\COMPUTER_GRAPHICS_PROJECT_4\DEBUG\ROOM.OBJ
K:\DEVELOPMENT\VISUAL STUDIOS PROJECTS\COMPUTER_GRAPHICS_PROJECT_4\COMPUTER_GRAPHICS_PROJECT_4\DEBUG\SCOREKEEPER.OBJ
K:\DEVELOPMENT\VISUAL STUDIOS PROJECTS\COMPUTER_GRAPHICS_PROJECT_4\COMPUTER_GRAPHICS_PROJECT_4\DEBUG\SHADER.OBJ
K:\DEVELOPMENT\VISUAL STUDIOS PROJECTS\COMPUTER_GRAPHICS_PROJECT_4\COMPUTER_GRAPHICS_PROJECT_4\DEBUG\SKYBOX.OBJ
K:\DEVELOPMENT\VISUAL STUDIOS PROJECTS\COMPUTER_GRAPHICS_PROJECT_4\COMPUTER_GRAPHICS_PROJECT_4\DEBUG\SQUARE.OBJ
K:\DEVELOPMENT\VISUAL STUDIOS PROJECTS\COMPUTER_GRAPHICS_PROJECT_4\COMPUTER_GRAPHICS_PROJECT_4\DEBUG\TABLE.OBJ
K:\DEVELOPMENT\VISUAL STUDIOS PROJECTS\COMPUTER_GRAPHICS_PROJECT_4\COMPUTER_GRAPHICS_PROJECT_4\DEBUG\TEXTURE.OBJ
K:\DEVELOPMENT\VISUAL STUDIOS PROJECTS\COMPUTER_GRAPHICS_PROJECT_4\COMPUTER_GRAPHICS_PROJECT_4\DEBUG\TRIANGLE.OBJ
K:\DEVELOPMENT\VISUAL STUDIOS PROJECTS\COMPUTER_GRAPHICS_PROJECT_4\COMPUTER_GRAPHICS_PROJECT_4\DEBUG\VERTEX.OBJ
C:\WINDOWS\SYSTEM32\TZRES.DLL
C:\PROGRAM FILES (X86)\MICROSOFT VISUAL STUDIO\2017\COMMUNITY\VC\TOOLS\MSVC\14.11.25503\LIB\X86\MSVCPRTD.LIB
C:\PROGRAM FILES (X86)\MICROSOFT VISUAL STUDIO\2017\COMMUNITY\VC\TOOLS\MSVC\14.11.25503\LIB\X86\MSVCRTD.LIB
C:\PROGRAM FILES (X86)\MICROSOFT VISUAL STUDIO\2017\COMMUNITY\VC\TOOLS\MSVC\14.11.25503\LIB\X86\OLDNAMES.LIB
C:\PROGRAM FILES (X86)\MICROSOFT VISUAL STUDIO\2017\COMMUNITY\VC\TOOLS\MSVC\14.11.25503\LIB\X86\LIBCMT.LIB
C:\PROGRAM FILES (X86)\MICROSOFT VISUAL STUDIO\2017\COMMUNITY\VC\TOOLS\MSVC\14.11.25503\LIB\X86\VCRUNTIMED.LIB
C:\PROGRAM FILES (X86)\WINDOWS KITS\10\LIB\10.0.15063.0\UCRT\X86\UCRTD.LIB
